{
    "bobot": [
        {
            "tanggal": "11 September 2021",
            "investor": 188,
            "rri": 202,
            "tempo": 210,
            "tribun": 141,
            "wartakota": 134,
            "gatra": 90,
            "terbit": 77,
            "total": 1100
        },
        {
            "tanggal": "12 September 2021",
            "investor": 30,
            "rri": 41,
            "tempo": 43,
            "tribun": 30,
            "wartakota": 34,
            "gatra": 27,
            "terbit": 26,
            "total": 230
        },
        {
            "tanggal": "13 September 2021",
            "investor": 55,
            "rri": 60,
            "tempo": 60,
            "tribun": 35,
            "wartakota": 35,
            "gatra": 28,
            "terbit": 27,
            "total": 300
        },
        {
            "tanggal": "14 September 2021",
            "investor": 66,
            "rri": 66,
            "tempo": 66,
            "tribun": 36,
            "wartakota": 36,
            "gatra": 15,
            "terbit": 15,
            "total": 300
        },
        {
            "tanggal": "15 September 2021",
            "investor": 240,
            "rri": 270,
            "tempo": 270,
            "tribun": 210,
            "wartakota": 210,
            "gatra": 150,
            "terbit": 150,
            "total": 1500
        },
        {
            "tanggal": "14 Oktober 2021",
            "investor": 240,
            "rri": 270,
            "tempo": 270,
            "tribun": 210,
            "wartakota": 210,
            "gatra": 150,
            "terbit": 150,
            "total": 1500
        }
    ]
}
